64-bit double
tau  = 17
meas = 10

nu_14
 AVG err = 0.024164814331052595
MEAN err = 0.021484
 MAX err = 0.125

nu_15
 AVG err = 0.047892276245116785
MEAN err = 0.039062
 MAX err = 0.3125

nu_16
 AVG err = 0.08195364453125155
MEAN err = 0.0625
 MAX err = 0.5

nu_17
 AVG err = 0.17915798217010476
MEAN err = 0.15625
 MAX err = 0.5

nu_18
 AVG err = 0.24106174048996226
MEAN err = 0.25
 MAX err = 0.5

--------------------------------------------------------------------------------

> load "/home/fakub/documents/phd/research/neural/impl/ffnt-benchmark-c/out/polynomials_fptype=64-bit__tau=17__nu=14-16__meas=1.txt"
nu = 14
o
nu = 15
X
nu = 16
X
=> true
