80-bit double
tau  = 18
meas = 10

nu_14
 AVG err = 0.031615560225219864
MEAN err = 0.02197266
 MAX err = 0.13621664

nu_15
 AVG err = 0.06333212655486996
MEAN err = 0.04382324
 MAX err = 0.27714539

nu_16
 AVG err = 0.1268370666447385
MEAN err = 0.08789062
 MAX err = 0.49998474

nu_17
 AVG err = 0.20697370996955752
MEAN err = 0.16943359
 MAX err = 0.5

nu_18
 AVG err = 0.21230997669521803
MEAN err = 0.19335938
 MAX err = 0.5

--------------------------------------------------------------------------------

> load "/home/fakub/documents/phd/research/neural/impl/ffnt-benchmark-c/out/polynomials_fptype=80-bit__tau=18__nu=14-16__meas=1.txt"
nu = 14
X
nu = 15
^C
