64-bit double
tau  = 18
meas = 10

nu_14
 AVG err = 0.10918513543701144
MEAN err = 0.125
 MAX err = 0.5

nu_15
 AVG err = 0.16090991085815434
MEAN err = 0.125
 MAX err = 0.5

nu_16
 AVG err = 0.24556488301086424
MEAN err = 0.25
 MAX err = 0.5

nu_17
 AVG err = 0.13040545170593276
MEAN err = 0.0
 MAX err = 0.5

nu_18
 AVG err = 0.06384059944534334
MEAN err = 0.0
 MAX err = 0.5
